#=5
#=3       Sum=14          Mean=     4.667 +- 1.2472
#=0       Sum=0           Mean=     0.000 +- 0.0000
#=3       Sum=14          Mean=     4.667
#=3       Sum=14          Mean=     4.667 +- 1.2472
#=1000    Sum=4.995e+05   Mean=     499.5
#=5       Sum=2           Eff=|( 40.00000 +- 21.9089 )%|
#=3       Sum=14          Mean=     4.667 +- 1.2472     Min/Max=     3.000/6.000
#=5       Sum=2           Mean=    0.4000 +- 0.48990    Min/Max=     0.000/1.000
#=3       Sum=14          Mean=     4.667 +- 1.2472     Min/Max=     3.000/6.000
